Chapter 7 R packages for estimation of the causal (in)direct effects | [SER 2021 Workshop] Causal Mediation: Modern Methods for Path Analysis
…
# load and examine data
data(weight_behavior)
dim(weight_behavior)
#> [1] 691  15

# drop missing values
weight_behavior <- weight_behavior %>%
  drop_na() %>%
  as_tibble()
weight_behavior
#> # A tibble: 567 x 15
#>     bmi   age sex   race  numpeople   car gotosch snack tvhours cmpthours
#>   <dbl> <dbl> <fct> <fct>     <int> <int> <fct>   <fct>   <dbl>     <dbl>
#> 1  18.2  12.2 F     OTHER         5     3 2       1           4         0
#> 2  22.8  12.8 M     OTHER         4     3 2       1           4         2
#> 3  25.6  12.1 M     OTHER         2     3 2       1           0         2
#> 4  15.1  12.3 M     OTHER         4     1 2       1           2         1
#> 5  23.0  11.8 M     OTHER         4     1 1       1           4         3
#> # … with 562 more rows, and 5 more variables: cellhours <dbl>, sports <fct>,
#> #   exercises <int>, sweat <int>, overweigh <dbl>
…
